…
```{r}
library(tidyverse)
x <- seq(from = 0, to = 2 * pi, length.out = 100)
tb <- tibble(x, sin(x), cos(x), cos(x) + sin(x))
```

```{r}
# Note how concise and relevant the output is:
print(tb)
## # A tibble: 100 x 4
## x `sin(x)` `cos(x)` `cos(x) + sin(x)`
## <dbl> <dbl> <dbl> <dbl>
## 1 0 0 1 1
## 2 0.0635 0.0634 0.998 1.06
## 3 0.127 0.127 0.992 1.12
## 4 0.190 0.189 0.982 1.17
## 5 0.254 0.251 0.968 1.22
## 6 0.317 0.312 0.950 1.26
## 7 0.381 0.372 0.928 1.30
## 8 0.444 0.430 0.903 1.33
## 9 0.508 0.486 0.874 1.36
## 10 0.571 0.541 0.841 1.38
## # ... with 90 more rows
…
